…
## Data Cleaning

1.  Interested in the following variables: hotel, is_canceled,
    lead_time.

``` r
trimmed_df<-bookings_df %>% 
  select(hotel,is_canceled,lead_time) %>% 
  rename(hotel_type=hotel)
trimmed_df
```

    ## # A tibble: 119,390 × 3
    ##    hotel_type   is_canceled lead_time
    ##    <chr>              <int>     <int>
    ##  1 Resort Hotel           0       342
    ##  2 Resort Hotel           0       737
    ##  3 Resort Hotel           0         7
    ##  4 Resort Hotel           0        13
    ##  5 Resort Hotel           0        14
    ##  6 Resort Hotel           0        14
    ##  7 Resort Hotel           0         0
    ##  8 Resort Hotel           0         9
    ##  9 Resort Hotel           1        85
    ## 10 Resort Hotel           1        75
    ## # ℹ 119,380 more rows

2.  Here we will combine the arrival month and year into one column
    using the `unite()` function:

``` r
arrival<-bookings_df %>% 
   select(arrival_date_year,arrival_date_month) %>% 
  unite(arrival_month_year,c("arrival_date_month","arrival_date_year"),sep = " ")
arrival
```

    ## # A tibble: 119,390 × 1
    ##    arrival_month_year
    ##    <chr>             
    ##  1 July 2015         
    ##  2 July 2015         
    ##  3 July 2015         
    ##  4 July 2015         
    ##  5 July 2015         
    ##  6 July 2015         
    ##  7 July 2015         
    ##  8 July 2015         
    ##  9 July 2015         
    ## 10 July 2015         
    ## # ℹ 119,380 more rows

3.  Here we will combine adults,children and babies as `Guests`by using
    the mutate function

``` r
guests<-bookings_df %>% 
  select(adults,children,babies) %>% 
  mutate(guests=adults+children+babies)
guests
```

    ## # A tibble: 119,390 × 4
    ##    adults children babies guests
    ##     <int>    <int>  <int>  <int>
    ##  1      2        0      0      2
    ##  2      2        0      0      2
    ##  3      1        0      0      1
    ##  4      1        0      0      1
    ##  5      2        0      0      2
    ##  6      2        0      0      2
    ##  7      2        0      0      2
    ##  8      2        0      0      2
    ##  9      2        0      0      2
    ## 10      2        0      0      2
    ## # ℹ 119,380 more rows
…
